{
  "2500" : {
    "name" : "file: new file",
    "s1" : [
      "Ctrl+N"
    ],
    "s2" : [
      "Ctrl+T"
    ]
  },
  "cuda_comments,cmt_toggle_line_1st" : {
    "name" : "plugin: Comments: Toggle line comment, at line start",
    "s1" : [
      "Ctrl+/"
    ],
    "s2" : [
    ]
  },
  "cuda_sort,sort_asc_nocase" : {
    "name" : "plugin: Sort: Sort, asc., ignore case",
    "s1" : [
      "F9"
    ],
    "s2" : [
    ]
  },
  "1027" : {
    "name" : "trim spaces: right",
    "s1" : [
      "Shift+Ctrl+Alt+T"
    ],
    "s2" : [
    ]
  }

// end  
}