[
  {"cap":"", "hint":"top", "sub": [
      {"cap":"&File", "hint":"top-file", "sub": [
          {"cap":"&New file", "cmd":"cmd_FileNew"}
         ,{"cap":"New from te&mplate...", "cmd":"cmd_FileNewMenu"}
         ,{"cap":"&Open file...", "cmd":"cmd_FileOpen"}
         ,{"cap":"Open &folder...", "cmd":"cmd_FileOpenFolder"}
         ,{"cap":"Open recen&t", "hint":"_recents"}
         ,{"cap":"&Reopen", "cmd":"cmd_FileReopen"}
         ,{"cap":"-"}
         ,{"cap":"&Save", "cmd":"cmd_FileSave"}
         ,{"cap":"Save &as...", "cmd":"cmd_FileSaveAs"}
         ,{"cap":"Sa&ve all", "cmd":"cmd_FileSaveAll"}
         ,{"cap":"-"}
         ,{"cap":"&Close", "cmd":"cmd_FileClose"}
         ,{"cap":"Close a&ll", "cmd":"cmd_FileCloseAll"}
         ,{"cap":"Close ot&her tabs", "cmd":"cmd_FileCloseOtherThis"}
         ,{"cap":"Close and &delete file", "cmd":"cmd_FileCloseAndDelete"}
         ,{"cap":"-"}
         ,{"cap":"&Encoding", "hint":"_enc"}
         ,{"cap":"L&ine ends", "hint":"_ends", "sub": [
              {"cap":"Win", "cmd":"cmd_LineEndWin"}
             ,{"cap":"Unix", "cmd":"cmd_LineEndUnix"}
             ,{"cap":"MacOS9", "cmd":"cmd_LineEndMac"}
          ]}
         ,{"cap":"-"}
         ,{"cap":"E&xport to HTML...", "cmd":"cmd_FileExportHtml"}
         ,{"cap":"&Quit", "cmd":"cmd_FileExit"}
      ]}
     ,{"cap":"&Edit", "hint":"top-edit", "sub": [
          {"cap":"&Undo", "cmd":"cCommand_Undo"}
         ,{"cap":"&Redo", "cmd":"cCommand_Redo"}
         ,{"cap":"-"}
         ,{"cap":"Cu&t", "cmd":"cCommand_ClipboardCut"}
         ,{"cap":"&Copy", "cmd":"cCommand_ClipboardCopy"}
         ,{"cap":"&Paste", "cmd":"cCommand_ClipboardPaste"}
         ,{"cap":"&Delete", "cmd":"cCommand_TextDeleteSelection"}
         ,{"cap":"-"}
         ,{"cap":"Cop&y to clipboard", "sub": [
              {"cap":"Copy &current line", "cmd":"cmd_CopyLine"}
             ,{"cap":"Copy/&append selection", "cmd":"cCommand_ClipboardCopyAdd"}
             ,{"cap":"-"}
             ,{"cap":"Copy &full filepath", "cmd":"cmd_CopyFilenameFull"}
             ,{"cap":"Copy file&path only", "cmd":"cmd_CopyFilenameDir"}
             ,{"cap":"Copy file&name only", "cmd":"cmd_CopyFilenameName"}
          ]}
         ,{"cap":"&Line operations", "sub": [
              {"cap":"D&elete line(s)", "cmd":"cCommand_TextDeleteLine"}
             ,{"cap":"Du&plicate line(s)", "cmd":"cCommand_TextDuplicateLine"}
             ,{"cap":"-"}
             ,{"cap":"Move line(s) &up", "cmd":"cCommand_MoveSelectionUp"}
             ,{"cap":"Move line(s) &down", "cmd":"cCommand_MoveSelectionDown"}
          ]}
         ,{"cap":"&Blank operations", "sub": [
              {"cap":"&Indent", "cmd":"cCommand_TextIndent"}
             ,{"cap":"&Unindent", "cmd":"cCommand_TextUnindent"}
             ,{"cap":"-"}
             ,{"cap":"Trim spaces: &left", "cmd":"cCommand_TextTrimSpacesLeft"}
             ,{"cap":"Trim spaces: &right", "cmd":"cCommand_TextTrimSpacesRight"}
             ,{"cap":"Trim spaces: &all", "cmd":"cCommand_TextTrimSpacesAll"}
             ,{"cap":"-"}
             ,{"cap":"Convert &tabs to spaces", "cmd":"cmd_ConvertTabsToSpaces"}
             ,{"cap":"Convert &spaces (leading) to tabs", "cmd":"cmd_ConvertSpacesToTabsLeading"}
          ]}
         ,{"cap":"Con&vert case", "sub": [
              {"cap":"&Upper case", "cmd":"cCommand_TextCaseUpper"}
             ,{"cap":"&Lower case", "cmd":"cCommand_TextCaseLower"}
             ,{"cap":"&Title case", "cmd":"cCommand_TextCaseTitle"}
             ,{"cap":"&Invert case", "cmd":"cCommand_TextCaseInvert"}
             ,{"cap":"&Sentence case", "cmd":"cCommand_TextCaseSentence"}
          ]}
         ,{"cap":"Char m&ap...", "cmd":"cmd_DialogCharMap"}
      ]}
     ,{"cap":"Select&ion", "hint":"top-sel", "sub": [
          {"cap":"&Select all", "cmd":"cCommand_SelectAll"}
         ,{"cap":"&Expand selection to line", "cmd":"cCommand_SelectExtendByLine"}
         ,{"cap":"Expand selection to &word", "cmd":"cmd_SelectExpandToWord"}
         ,{"cap":"-"}
         ,{"cap":"S&plit selection into lines", "cmd":"cCommand_SelectSplitToLines"}
         ,{"cap":"&Invert selection", "cmd":"cCommand_SelectInverted"}
         ,{"cap":"-"}
         ,{"cap":"&Cancel carets", "cmd":"cCommand_Cancel"}
         ,{"cap":"&More carets", "sub": [
              {"cap":"More carets, up, 1 &line", "cmd":"cCommand_CaretsExtendUpLine"}
             ,{"cap":"More carets, up, 1 &page", "cmd":"cCommand_CaretsExtendUpPage"}
             ,{"cap":"More carets, up, &until begin", "cmd":"cCommand_CaretsExtendUpToTop"}
             ,{"cap":"-"}
             ,{"cap":"More carets, &down, 1 line", "cmd":"cCommand_CaretsExtendDownLine"}
             ,{"cap":"More carets, d&own, 1 page", "cmd":"cCommand_CaretsExtendDownPage"}
             ,{"cap":"More carets, down, until &end", "cmd":"cCommand_CaretsExtendDownToEnd"}
          ]}
      ]}
     ,{"cap":"&Search", "hint":"top-sr", "sub": [
          {"cap":"&Find...", "cmd":"cmd_DialogFind"}
         ,{"cap":"&Replace...", "cmd":"cmd_DialogReplace"}
         ,{"cap":"Find &next", "cmd":"cmd_FindNext"}
         ,{"cap":"Find &previous", "cmd":"cmd_FindPrev"}
         ,{"cap":"-"}
         ,{"cap":"Find current word ne&xt", "cmd":"cmd_FindCurWordNext"}
         ,{"cap":"Find current word pr&evious", "cmd":"cmd_FindCurWordPrev"}
         ,{"cap":"-"}
         ,{"cap":"&Go to line...", "cmd":"cmd_DialogGoto"}
         ,{"cap":"Go &to bookmark...", "cmd":"cmd_DialogGotoBookmark"}
         ,{"cap":"&Bookmarks", "sub": [
              {"cap":"Go to &next bookmark", "cmd":"cmd_BookmarkGotoNext"}
             ,{"cap":"Go to &previous bookmark", "cmd":"cmd_BookmarkGotoPrev"}
             ,{"cap":"-"}
             ,{"cap":"&Toggle bookmark", "cmd":"cmd_BookmarkToggle"}
             ,{"cap":"&Inverse bookmarks", "cmd":"cmd_BookmarkInvertAll"}
             ,{"cap":"&Clear all bookmarks", "cmd":"cmd_BookmarkClearAll"}
             ,{"cap":"Copy bookmarked lines", "cmd":"cmd_BookmarkCopyMarkedLines"}
             ,{"cap":"Delete bookmarked lines", "cmd":"cmd_BookmarkDeleteMarkedLines"}
             ,{"cap":"-"}
             ,{"cap":"Place carets &on bookmarks", "cmd":"cmd_BookmarkPlaceCarets"}
             ,{"cap":"Place bookmarks on carets", "cmd":"cmd_BookmarkPlaceBookmarksOnCarets"}
          ]}
      ]}
     ,{"cap":"&View", "hint":"top-view", "sub": [
          {"cap":"&Split tab", "sub": [
              {"cap":"Toggle &split", "cmd":"cmd_SplitTabToggle"}
             ,{"cap":"Toggle &horizontal/vertical", "cmd":"cmd_SplitTabHorzVert"}
          ]}
         ,{"cap":"-"}
         ,{"cap":"Toggle &word-wrap", "cmd":"cCommand_ToggleWordWrap"}
         ,{"cap":"Toggle line &numbers", "cmd":"cCommand_ToggleLineNums"}
         ,{"cap":"Toggle code &folding", "cmd":"cCommand_ToggleFolding"}
         ,{"cap":"Toggle &ruler", "cmd":"cCommand_ToggleRuler"}
         ,{"cap":"Toggle &minimap", "cmd":"cCommand_ToggleMinimap"}
         ,{"cap":"Toggle micr&omap", "cmd":"cCommand_ToggleMicromap"}
         ,{"cap":"Toggle &unprinted chars", "sub": [
              {"cap":"&Show", "cmd":"cCommand_ToggleUnprinted"}
             ,{"cap":"-"}
             ,{"cap":"Show spaces/&tabs", "cmd":"cCommand_ToggleUnprintedSpaces"}
             ,{"cap":"Show spaces/tabs trailing &only", "cmd":"cCommand_ToggleUnprintedSpacesTrailing"}
             ,{"cap":"Show &ends", "cmd":"cCommand_ToggleUnprintedEnds"}
             ,{"cap":"Show ends &details", "cmd":"cCommand_ToggleUnprintedEndDetails"}
          ]}
         ,{"cap":"-"}
         ,{"cap":"Toggle &toolbar", "cmd":"cmd_ToggleToolbar"}
         ,{"cap":"Toggle st&atusbar", "cmd":"cmd_ToggleStatusbar"}
         ,{"cap":"Toggle s&ide panel", "cmd":"cmd_ToggleSidePanel"}
         ,{"cap":"Toggle &bottom panel", "cmd":"cmd_ToggleBottomPanel"}
         ,{"cap":"Toggle floating side panel", "cmd":"cmd_ToggleFloatSide"}
         ,{"cap":"Toggle floating bottom panel", "cmd":"cmd_ToggleFloatBottom"}
         ,{"cap":"-"}
         ,{"cap":"Toggle full-scr&een", "cmd":"cmd_ToggleFullScreen"}
         ,{"cap":"Toggle distraction-free", "cmd":"cmd_ToggleDistractionFree"}
         ,{"cap":"Toggle always on top", "cmd":"cmd_ToggleOnTop"}
         ,{"cap":"-"}
         ,{"cap":"Le&xers", "hint":"_lexers"}
      ]}
     ,{"cap":"&Plugins", "hint":"plugins"}
     ,{"cap":"&Options", "hint":"top-op", "sub": [
          {"cap":"Settings - &user", "cmd":"cmd_OpsOpenUser"}
         ,{"cap":"Settings - &default", "cmd":"cmd_OpsOpenDefault"}
         ,{"cap":"Settings - default/user", "cmd":"cmd_OpsOpenDefaultAndUser"}
         ,{"cap":"Settings - &more", "sub": [
              {"cap":"Settings - le&xer specific", "cmd":"cmd_OpsOpenLexerOvr"}
             ,{"cap":"Settings - &hotkeys", "cmd":"cmd_HelpHotkeys"}
             ,{"cap":"Settings - &file types", "cmd":"cmd_OpsOpenFileTypes"}
             ,{"cap":"-"}
             ,{"cap":"Settings - theme - &ui", "cmd":"cmd_DialogThemeUi"}
             ,{"cap":"Settings - theme - &syntax", "cmd":"cmd_DialogThemeSyntax"}
          ]}
         ,{"cap":"Settings - &plugins", "hint":"_oplugins"}
         ,{"cap":"-"}
         ,{"cap":"&Fonts", "sub": [
              {"cap":"Select &text font...", "cmd":"cmd_OpsFontText"}
             ,{"cap":"Select &UI font...", "cmd":"cmd_OpsFontUi"}
             ,{"cap":"Select &output-panel font...", "cmd":"cmd_OptFontOutput"}
          ]}
         ,{"cap":"&Lexers", "sub": [
              {"cap":"Lexer &properties...", "cmd":"cmd_DialogLexerProp"}
             ,{"cap":"Lexer &library...", "cmd":"cmd_DialogLexerLib"}
             ,{"cap":"Lexer styles &mapping...", "cmd":"cmd_DialogLexerStyleMap"}
          ]}
         ,{"cap":"&Color themes", "sub": [
              {"cap":"UI", "hint":"_themes-ui"}
             ,{"cap":"Syntax", "hint":"_themes-syntax"}
          ]}
         ,{"cap":"&Translations", "hint":"_langs"}
      ]}
     ,{"cap":"&Help", "hint":"top-help", "sub": [
          {"cap":"&Command palette...", "cmd":"cmd_DialogCommands"}
         ,{"cap":"-"}
         ,{"cap":"&Forum", "cmd":"cmd_HelpForum"}
         ,{"cap":"&Wiki", "cmd":"cmd_HelpWiki"}
         ,{"cap":"&Mouse usage", "cmd":"cmd_HelpMouse"}
         ,{"cap":"&Lexers", "cmd":"cmd_HelpLexers"}
         ,{"cap":"C&hangelog", "cmd":"cmd_HelpChangelog"}
         ,{"cap":"&Report an issue", "cmd":"cmd_HelpIssues"}
         ,{"cap":"Check for &updates", "cmd":"cmd_HelpCheckUpdates"}
         ,{"cap":"-"}
         ,{"cap":"&About...", "cmd":"cmd_HelpAbout"}
      ]}
     ,{"cap":"&=", "hint":"top-groups", "sub": [
          {"cap":"O&ne group", "cmd":"cmd_Groups1"}
         ,{"cap":"&2 vert", "cmd":"cmd_Groups2vert"}
         ,{"cap":"2 &horz", "cmd":"cmd_Groups2horz"}
         ,{"cap":"&3 vert", "cmd":"cmd_Groups3vert"}
         ,{"cap":"3 h&orz", "cmd":"cmd_Groups3horz"}
         ,{"cap":"&1+2 vert", "cmd":"cmd_Groups3plus"}
         ,{"cap":"1+2 ho&rz", "cmd":"cmd_Groups3plushorz"}
         ,{"cap":"&4 vert", "cmd":"cmd_Groups4vert"}
         ,{"cap":"4 hor&z", "cmd":"cmd_Groups4horz"}
         ,{"cap":"4 &grid", "cmd":"cmd_Groups4grid"}
         ,{"cap":"6 vert", "cmd":"cmd_Groups6vert"}
         ,{"cap":"6 horz", "cmd":"cmd_Groups6horz"}
         ,{"cap":"&6 grid", "cmd":"cmd_Groups6grid"}
      ]}
  ]}
 ,{"cap":"", "hint":"text", "sub": [
      {"cap":"Undo", "cmd":"cCommand_Undo"}
     ,{"cap":"Redo", "cmd":"cCommand_Redo"}
     ,{"cap":"-"}
     ,{"cap":"Cut", "cmd":"cCommand_ClipboardCut"}
     ,{"cap":"Copy", "cmd":"cCommand_ClipboardCopy"}
     ,{"cap":"Paste", "cmd":"cCommand_ClipboardPaste"}
     ,{"cap":"Delete", "cmd":"cCommand_TextDeleteSelection"}
     ,{"cap":"Select all", "cmd":"cCommand_SelectAll"}
     ,{"cap":"-"}
     ,{"cap":"Go to definition", "cmd":"cmd_GotoDefinition"}
     ,{"cap":"Open URL", "cmd":"cmd_LinkAtPopup_Open"}
  ]}
]